%YAML 1.1
%TAG !u! tag:unity3d.com,2011:
--- !u!1001 &277291769925747841
PrefabInstance:
  m_ObjectHideFlags: 0
  serializedVersion: 2
  m_Modification:
    m_TransformParent: {fileID: 0}
    m_Modifications:
    - target: {fileID: 277291769911991107, guid: 7203ee26e6a731d4e8912da0102c13f3,
        type: 3}
      propertyPath: InitialModule.startSizeY.minMaxState
      value: 3
      objectReference: {fileID: 0}
    - target: {fileID: 277291769911991107, guid: 7203ee26e6a731d4e8912da0102c13f3,
        type: 3}
      propertyPath: InitialModule.startSizeZ.minMaxState
      value: 3
      objectReference: {fileID: 0}
    - target: {fileID: 277291769911991107, guid: 7203ee26e6a731d4e8912da0102c13f3,
        type: 3}
      propertyPath: InitialModule.startRotationX.minMaxState
      value: 3
      objectReference: {fileID: 0}
    - target: {fileID: 277291769911991107, guid: 7203ee26e6a731d4e8912da0102c13f3,
        type: 3}
      propertyPath: InitialModule.startRotationY.minMaxState
      value: 3
      objectReference: {fileID: 0}
    - target: {fileID: 277291769911991109, guid: 7203ee26e6a731d4e8912da0102c13f3,
        type: 3}
      propertyPath: InitialModule.startSizeY.minMaxState
      value: 3
      objectReference: {fileID: 0}
    - target: {fileID: 277291769911991109, guid: 7203ee26e6a731d4e8912da0102c13f3,
        type: 3}
      propertyPath: InitialModule.startSizeZ.minMaxState
      value: 3
      objectReference: {fileID: 0}
    - target: {fileID: 277291769911991109, guid: 7203ee26e6a731d4e8912da0102c13f3,
        type: 3}
      propertyPath: InitialModule.startRotationX.minMaxState
      value: 3
      objectReference: {fileID: 0}
    - target: {fileID: 277291769911991109, guid: 7203ee26e6a731d4e8912da0102c13f3,
        type: 3}
      propertyPath: InitialModule.startRotationY.minMaxState
      value: 3
      objectReference: {fileID: 0}
    - target: {fileID: 277291769925845537, guid: 7203ee26e6a731d4e8912da0102c13f3,
        type: 3}
      propertyPath: m_Name
      value: Explosion
      objectReference: {fileID: 0}
    - target: {fileID: 277291769926147585, guid: 7203ee26e6a731d4e8912da0102c13f3,
        type: 3}
      propertyPath: m_RootOrder
      value: 0
      objectReference: {fileID: 0}
    - target: {fileID: 277291769926147585, guid: 7203ee26e6a731d4e8912da0102c13f3,
        type: 3}
      propertyPath: m_LocalPosition.x
      value: 0
      objectReference: {fileID: 0}
    - target: {fileID: 277291769926147585, guid: 7203ee26e6a731d4e8912da0102c13f3,
        type: 3}
      propertyPath: m_LocalPosition.y
      value: 0
      objectReference: {fileID: 0}
    - target: {fileID: 277291769926147585, guid: 7203ee26e6a731d4e8912da0102c13f3,
        type: 3}
      propertyPath: m_LocalPosition.z
      value: 0
      objectReference: {fileID: 0}
    - target: {fileID: 277291769926147585, guid: 7203ee26e6a731d4e8912da0102c13f3,
        type: 3}
      propertyPath: m_LocalRotation.w
      value: 1
      objectReference: {fileID: 0}
    - target: {fileID: 277291769926147585, guid: 7203ee26e6a731d4e8912da0102c13f3,
        type: 3}
      propertyPath: m_LocalRotation.x
      value: 0
      objectReference: {fileID: 0}
    - target: {fileID: 277291769926147585, guid: 7203ee26e6a731d4e8912da0102c13f3,
        type: 3}
      propertyPath: m_LocalRotation.y
      value: 0
      objectReference: {fileID: 0}
    - target: {fileID: 277291769926147585, guid: 7203ee26e6a731d4e8912da0102c13f3,
        type: 3}
      propertyPath: m_LocalRotation.z
      value: 0
      objectReference: {fileID: 0}
    - target: {fileID: 277291769926147585, guid: 7203ee26e6a731d4e8912da0102c13f3,
        type: 3}
      propertyPath: m_LocalEulerAnglesHint.x
      value: 0
      objectReference: {fileID: 0}
    - target: {fileID: 277291769926147585, guid: 7203ee26e6a731d4e8912da0102c13f3,
        type: 3}
      propertyPath: m_LocalEulerAnglesHint.y
      value: 0
      objectReference: {fileID: 0}
    - target: {fileID: 277291769926147585, guid: 7203ee26e6a731d4e8912da0102c13f3,
        type: 3}
      propertyPath: m_LocalEulerAnglesHint.z
      value: 0
      objectReference: {fileID: 0}
    m_RemovedComponents: []
  m_SourcePrefab: {fileID: 100100000, guid: 7203ee26e6a731d4e8912da0102c13f3, type: 3}
